6,50
19,100
40,150
71,200
108,250
152,300
195,350
233,400
289,450
389,500
620,550
524,600
603,650
688,700
951,750
997,800
1055,850
1097,900
1266,950
1400,1000
1528,1050
1653,1100
1992,1150
1934,1200
2169,1250
2346,1300
2540,1350
2719,1400
2926,1450
3056,1500
4161,1550
3810,1600
4309,1650
4065,1700
4234,1750
4810,1800
5340,1850
5153,1900
5562,1950
6214,2000
6100,2050
6358,2100
6322,2150
6690,2200
7429,2250
7837,2300
8442,2350
8392,2400
9299,2450
8951,2500
9566,2550
9857,2600
11005,2650
11060,2700
11314,2750
11258,2800
12064,2850
12379,2900
12689,2950
14150,3000
13811,3050
14511,3100
14479,3150
15124,3200
15448,3250
15592,3300
16018,3350
17899,3400
18069,3450
18089,3500
18474,3550
18897,3600
19559,3650
20282,3700
20960,3750
21526,3800
21844,3850
22677,3900
22093,3950
23232,4000
23997,4050
23605,4100
25897,4150
25306,4200
26157,4250
26930,4300
26705,4350
28091,4400
27745,4450
28723,4500
29679,4550
30555,4600
31096,4650
31357,4700
31969,4750
32761,4800
33513,4850
34173,4900
35183,4950
36026,5000
37017,5050
36904,5100
36769,5150
37516,5200
39793,5250
39339,5300
41209,5350
41770,5400
41527,5450
42121,5500
42856,5550
44725,5600
45678,5650
45102,5700
46403,5750
47579,5800
47532,5850
49104,5900
49086,5950
50637,6000
50924,6050
52603,6100
52610,6150
55940,6200
55802,6250
57252,6300
56570,6350
59141,6400
59421,6450
58527,6500
60922,6550
60731,6600
61325,6650
63350,6700
65123,6750
65808,6800
67124,6850
68374,6900
67780,6950
69290,7000
69388,7050
70748,7100
72921,7150
71270,7200
72405,7250
74273,7300
73785,7350
75801,7400
76566,7450
77610,7500
78914,7550
79939,7600
81582,7650
81395,7700
85005,7750
85776,7800
83853,7850
85052,7900
86591,7950
88120,8000
89576,8050
90064,8100
94092,8150
91939,8200
93285,8250
94656,8300
98285,8350
95971,8400
97789,8450
99522,8500
99645,8550
101552,8600
102077,8650
104072,8700
106114,8750
107108,8800
110720,8850
107683,8900
111936,8950
110400,9000
111021,9050
112800,9100
116040,9150
118068,9200
120278,9250
122883,9300
117563,9350
119143,9400
120662,9450
122193,9500
126717,9550
127306,9600
127347,9650
130602,9700
128279,9750
130916,9800
131211,9850
133061,9900
135082,9950
