\relax 
\@nameuse{bbl@beforestart}
\catcode `:\active 
\catcode `;\active 
\catcode `!\active 
\catcode `?\active 
\babel@aux{french}{}
\@writefile{toc}{\contentsline {section}{\numberline {0.1}Réponses aux questions}{1}\protected@file@percent }
\@writefile{toc}{\contentsline {subsection}{\numberline {0.1.1}Implémentation du Quicksort}{1}\protected@file@percent }
\@writefile{toc}{\contentsline {subsubsection}{Q1}{1}\protected@file@percent }
\@writefile{toc}{\contentsline {subsubsection}{Q2}{1}\protected@file@percent }
\@writefile{lof}{\contentsline {figure}{\numberline {1}{\ignorespaces Les sorties produites qui sont testés par le script de test.}}{1}\protected@file@percent }
\@writefile{lof}{\contentsline {figure}{\numberline {2}{\ignorespaces Graphique du temps de calcul de qsortu en fonction de la taille du tableau en entrée.}}{2}\protected@file@percent }
\@writefile{toc}{\contentsline {subsubsection}{Q3}{2}\protected@file@percent }
\@writefile{lof}{\contentsline {figure}{\numberline {3}{\ignorespaces Graphique du temps de calcul de qsortu en fonction de la taille du tableau en entrée, avec pire cas.}}{3}\protected@file@percent }
\@writefile{lof}{\contentsline {figure}{\numberline {4}{\ignorespaces Graphique du temps de calcul de qsortu en fonction de la taille du tableau en entrée.}}{4}\protected@file@percent }
\@writefile{toc}{\contentsline {subsubsection}{Q4}{4}\protected@file@percent }
\@writefile{lof}{\contentsline {figure}{\numberline {5}{\ignorespaces Graphique du temps de calcul des qsort* en fonction de la taille du tableau en entrée.}}{5}\protected@file@percent }
\@writefile{toc}{\contentsline {subsubsection}{Q5}{5}\protected@file@percent }
\@writefile{lof}{\contentsline {figure}{\numberline {6}{\ignorespaces Test de notre nouvelle fonction denomsort\_r.}}{6}\protected@file@percent }
\@writefile{toc}{\contentsline {subsubsection}{Q6}{6}\protected@file@percent }
\@writefile{lof}{\contentsline {figure}{\numberline {7}{\ignorespaces Les résultats en secondes des temps de tri en fonction de la puissance de 2 utilisée.}}{6}\protected@file@percent }
\@writefile{toc}{\contentsline {subsubsection}{Q7}{6}\protected@file@percent }
\@writefile{lof}{\contentsline {figure}{\numberline {8}{\ignorespaces Test de notre nouvelle fonction radixsort versus l'ancienne qsortu}}{7}\protected@file@percent }
